{
  "type": "object",
  "title": "Parameters",
  "required": [
    "auth_type",
    "container_name"
  ],
  "properties": {
    "auth_type": {
      "type": "string",
      "title": "Authorization type",
      "propertyOrder": 1,
      "enum": [
        "Azure Credentials",
        "Workspace Credentials"
      ],
      "default": "Azure Credentials"
    },
    "account_name": {
      "description": "Azure Storage Resources Account Name",
      "type": "string",
      "title": "Account Name",
      "minLength": 1,
      "propertyOrder": 10,
      "default": "STORAGE_NAME"
    },
    "#account_key": {
      "description": "Azure Storage Access Key",
      "type": "string",
      "title": "Access Key",
      "propertyOrder": 20,
      "options": {
        "dependencies": {
          "auth_type": "Azure Credentials"
        }
      }
    },
    "workspace_id": {
      "type": "string",
      "title": "Workspace ID",
      "description": "ID of the persistent workspace.",
      "propertyOrder": 40,
      "options": {
        "dependencies": {
          "auth_type": "Workspace Credentials"
        }
      }
    },
    "#storage_token": {
      "type": "string",
      "format": "password",
      "title": "Storage Token (Workspace)",
      "description": "Storage token to refresh the Workspace SAS key.",
      "propertyOrder": 50,
      "options": {
        "dependencies": {
          "auth_type": "Workspace Credentials"
        }
      }
    },
    "container_name": {
      "type": "string",
      "title": "Container Name",
      "description": "Azure Storage Container Name",
      "minLength": 1,
      "propertyOrder": 60
    }
  }
}
